…
#Visualizando a base de dados
base

## # A tibble: 200 x 10
##    Codigo Datacol   Sexo Idade  Peso Estatura   HIV Escol   DST  Tipo
##    <chr>  <chr>    <int> <int> <dbl>    <dbl> <int> <int> <int> <int>
##  1 AB01   14/10/15     1    15  65.4     1.62     1     3     1     2
##  2 AB02   09/02/16     0    28  60.4     1.55     0     5     0    NA
##  3 AB03   01/03/10     0    15  87.6     1.89     1     2     1     3
##  4 AB04   04/05/13     0    13  86.3     1.94     1    NA     1     2
##  5 AB05   20/05/14     0    19  81.2     1.65     0     2     1     3
##  6 AB06   30/01/11     1    14  77.2     1.66     1     6     0    NA
##  7 AB07   05/08/15     1    25  63.4     1.59     1     5     1     3
##  8 AB08   08/12/13     1    26  73.2     1.59     0     1     0     2
##  9 AB09   03/11/10     1    35  63.1     1.64     1     4     1     1
## 10 AB10   10/10/10     1    37  58.7     1.56     1     5     1    NA
## # ... with 190 more rows
…
