…
#Visualizando a base
base

## # A tibble: 167,789 x 10
##    suicidio_paf Microrregiao idade id_legal trab_armado  sexo  raca
##           <int>        <int> <int>    <int>       <int> <int> <int>
##  1            0        11001    26        1           0     2     1
##  2            0        11001    34        1           0     1     4
##  3            0        11001    49        1           0     1     4
##  4            1        11001    34        1           0     1     1
##  5            0        11001    20        1           0     1     4
##  6            0        11001    30        1           0     1     1
##  7            0        11001    42        1           0     1     1
##  8            0        11001    33        1           0     1     6
##  9            1        11001    38        1           0     1     4
## 10            0        11001    25        1           0     1     4
## # ... with 167,779 more rows, and 3 more variables: estado_civil <int>,
## #   escolaridade <int>, escolaridade_pai <int>
…
#Transformando a varivel estado civil em um factor
base$estado_civil = factor(base$estado_civil, labels=c("Solteiro","Unio estavel","Casado","Viuvo", "Divorciado","Desconhecido"))

#Transformando a varivel raca em um factor
base$raca = factor(base$raca, labels=c("Branco","Negro","Amarelo","Pardo", "Indigena","Desconhecido"))

#Transformando a varivel sexo em um factor
base$sexo = factor(base$sexo, labels=c("Masculino","Feminino"))

#Visualizando a base
base

## # A tibble: 167,789 x 10
##    suicidio_paf Microrregiao idade id_legal trab_armado sexo     raca     
##    <fct>        <fct>        <int>    <int>       <int> <fct>    <fct>    
##  1 No          11001           26        1           0 Feminino Branco   
##  2 No          11001           34        1           0 Masculi Pardo    
##  3 No          11001           49        1           0 Masculi Pardo    
##  4 Sim          11001           34        1           0 Masculi Branco   
##  5 No          11001           20        1           0 Masculi Pardo    
##  6 No          11001           30        1           0 Masculi Branco   
##  7 No          11001           42        1           0 Masculi Branco   
##  8 No          11001           33        1           0 Masculi Desconhe
##  9 Sim          11001           38        1           0 Masculi Pardo    
## 10 No          11001           25        1           0 Masculi Pardo    
## # ... with 167,779 more rows, and 3 more variables: estado_civil <fct>,
## #   escolaridade <ord>, escolaridade_pai <ord>
…
3.1.3 - Baseado em mais de uma varivel

# excluindo linhas que possuem idade e escolatridade iguais
base4 = distinct(base,idade, escolaridade)
dim(base4)

## [1] 470   2

3.2 - Selecionando colunas (variveis): funo select()

# Selecionando a variavel idade e  todas as variveis de trabalho armado at raca na base
base5 = select(base,idade, trab_armado:raca)
base5

## # A tibble: 167,789 x 4
##    idade trab_armado sexo      raca        
##    <int>       <int> <fct>     <fct>       
##  1    26           0 Feminino  Branco      
##  2    34           0 Masculino Pardo       
##  3    49           0 Masculino Pardo       
##  4    34           0 Masculino Branco      
##  5    20           0 Masculino Pardo       
##  6    30           0 Masculino Branco      
##  7    42           0 Masculino Branco      
##  8    33           0 Masculino Desconhecido
##  9    38           0 Masculino Pardo       
## 10    25           0 Masculino Pardo       
## # ... with 167,779 more rows

# Selecionando todas as variaveis com exceo de idade e idade legal
base6 = select(base,-c(idade,id_legal))
base6

## # A tibble: 167,789 x 8
##    suicidio_paf Microrregiao trab_armado sexo     raca        estado_civil
##    <fct>        <fct>              <int> <fct>    <fct>       <fct>       
##  1 No          11001                  0 Feminino Branco      Solteiro    
##  2 No          11001                  0 Masculi Pardo       Solteiro    
##  3 No          11001                  0 Masculi Pardo       Solteiro    
##  4 Sim          11001                  0 Masculi Branco      Desconhecido
##  5 No          11001                  0 Masculi Pardo       Solteiro    
##  6 No          11001                  0 Masculi Branco      Unio estav
##  7 No          11001                  0 Masculi Branco      Solteiro    
##  8 No          11001                  0 Masculi Desconheci Desconhecido
##  9 Sim          11001                  0 Masculi Pardo       Unio estav
## 10 No          11001                  0 Masculi Pardo       Desconhecido
## # ... with 167,779 more rows, and 2 more variables: escolaridade <ord>,
## #   escolaridade_pai <ord>

# Selecionando todas as variaveis cujo nome inicia com e
base7 = select(base,starts_with("e"))
base7

## # A tibble: 167,789 x 3
##    estado_civil  escolaridade escolaridade_pai
##    <fct>         <ord>        <ord>           
##  1 Solteiro      Desconhecido Desconhecido    
##  2 Solteiro      4 a 7        4 a 7           
##  3 Solteiro      1 a 3        Analfabeto      
##  4 Desconhecido  Desconhecido Desconhecido    
##  5 Solteiro      Desconhecido Desconhecido    
##  6 Unio estavel 4 a 7        4 a 7           
##  7 Solteiro      4 a 7        4 a 7           
##  8 Desconhecido  Desconhecido Desconhecido    
##  9 Unio estavel Desconhecido Desconhecido    
## 10 Desconhecido  Desconhecido Desconhecido    
## # ... with 167,779 more rows

Podem ser teis tambm ends_with() e contains().

3.3 - Reordenando as variveis: funo select()

# reorganiza o data frame, iniciando com a varivel Microrregiao e depois as demais
base8=select(base,Microrregiao,everything())
base8

## # A tibble: 167,789 x 10
##    Microrregiao suicidio_paf idade id_legal trab_armado sexo     raca     
##    <fct>        <fct>        <int>    <int>       <int> <fct>    <fct>    
##  1 11001        No             26        1           0 Feminino Branco   
##  2 11001        No             34        1           0 Masculi Pardo    
##  3 11001        No             49        1           0 Masculi Pardo    
##  4 11001        Sim             34        1           0 Masculi Branco   
##  5 11001        No             20        1           0 Masculi Pardo    
##  6 11001        No             30        1           0 Masculi Branco   
##  7 11001        No             42        1           0 Masculi Branco   
##  8 11001        No             33        1           0 Masculi Desconhe
##  9 11001        Sim             38        1           0 Masculi Pardo    
## 10 11001        No             25        1           0 Masculi Pardo    
## # ... with 167,779 more rows, and 3 more variables: estado_civil <fct>,
## #   escolaridade <ord>, escolaridade_pai <ord>

3.4 - Renomeando variveis: funo rename()

# Renomeando a varivel Microrregiao para micro
base9 = rename(base8,Micro = Microrregiao)
base9

## # A tibble: 167,789 x 10
##    Micro suicidio_paf idade id_legal trab_armado sexo   raca  estado_civil
##    <fct> <fct>        <int>    <int>       <int> <fct>  <fct> <fct>       
##  1 11001 No             26        1           0 Femin Bran Solteiro    
##  2 11001 No             34        1           0 Mascu Pardo Solteiro    
##  3 11001 No             49        1           0 Mascu Pardo Solteiro    
##  4 11001 Sim             34        1           0 Mascu Bran Desconhecido
##  5 11001 No             20        1           0 Mascu Pardo Solteiro    
##  6 11001 No             30        1           0 Mascu Bran Unio estav
##  7 11001 No             42        1           0 Mascu Bran Solteiro    
##  8 11001 No             33        1           0 Mascu Desc Desconhecido
##  9 11001 Sim             38        1           0 Mascu Pardo Unio estav
## 10 11001 No             25        1           0 Mascu Pardo Desconhecido
## # ... with 167,779 more rows, and 2 more variables: escolaridade <ord>,
## #   escolaridade_pai <ord>

3.5 - Selecionando um subconjunto de linhas que satisfazem uma ou mais condies: funo filter()

# Selecionando somente os indivduos do sexo masculino
base9 = filter(base, sexo == "Masculino")
base9

## # A tibble: 134,611 x 10
##    suicidio_paf Microrregiao idade id_legal trab_armado sexo     raca     
##    <fct>        <fct>        <int>    <int>       <int> <fct>    <fct>    
##  1 No          11001           34        1           0 Masculi Pardo    
##  2 No          11001           49        1           0 Masculi Pardo    
##  3 Sim          11001           34        1           0 Masculi Branco   
##  4 No          11001           20        1           0 Masculi Pardo    
##  5 No          11001           30        1           0 Masculi Branco   
##  6 No          11001           42        1           0 Masculi Branco   
##  7 No          11001           33        1           0 Masculi Desconhe
##  8 Sim          11001           38        1           0 Masculi Pardo    
##  9 No          11001           25        1           0 Masculi Pardo    
## 10 No          11001           38        1           0 Masculi Pardo    
## # ... with 134,601 more rows, and 3 more variables: estado_civil <fct>,
## #   escolaridade <ord>, escolaridade_pai <ord>

# Selecionando somente os indivduos do sexo masculino e branco
base10 = filter(base, sexo == "Masculino" & raca == "Branco")
base10

## # A tibble: 74,620 x 10
##    suicidio_paf Microrregiao idade id_legal trab_armado sexo      raca  
##    <fct>        <fct>        <int>    <int>       <int> <fct>     <fct> 
##  1 Sim          11001           34        1           0 Masculino Branco
##  2 No          11001           30        1           0 Masculino Branco
##  3 No          11001           42        1           0 Masculino Branco
##  4 No          11001           54        1           0 Masculino Branco
##  5 No          11001           NA        1           0 Masculino Branco
##  6 Sim          11001           33        1           0 Masculino Branco
##  7 No          11001           21        0           0 Masculino Branco
##  8 Sim          11001           42        1           0 Masculino Branco
##  9 No          11001           31        1           0 Masculino Branco
## 10 No          11001           36        1           0 Masculino Branco
## # ... with 74,610 more rows, and 3 more variables: estado_civil <fct>,
## #   escolaridade <ord>, escolaridade_pai <ord>

# Selecionando somente os indivduos com escolaridade de 1 a 3 anos e 4 a 7 anos
base11 = filter(base, escolaridade %in% c("1 a 3","4 a 7"))
base11

## # A tibble: 61,437 x 10
##    suicidio_paf Microrregiao idade id_legal trab_armado sexo      raca  
##    <fct>        <fct>        <int>    <int>       <int> <fct>     <fct> 
##  1 No          11001           34        1           0 Masculino Pardo 
##  2 No          11001           49        1           0 Masculino Pardo 
##  3 No          11001           30        1           0 Masculino Branco
##  4 No          11001           42        1           0 Masculino Branco
##  5 No          11001           28        1           0 Feminino  Negro 
##  6 No          11001           54        1           0 Masculino Branco
##  7 No          11001           41        1           0 Feminino  Branco
##  8 No          11001           30        1           0 Masculino Pardo 
##  9 No          11001           32        1           0 Masculino Pardo 
## 10 No          11001           28        1           0 Masculino Pardo 
## # ... with 61,427 more rows, and 3 more variables: estado_civil <fct>,
## #   escolaridade <ord>, escolaridade_pai <ord>

# Selecionando indivduos que ou so homens solteiros ou so mulheres casadas
base12 = filter(base, (estado_civil=="Solteiro" & sexo =="Masculino") | (estado_civil=="Casado" & sexo =="Feminino") )
base12

## # A tibble: 65,314 x 10
##    suicidio_paf Microrregiao idade id_legal trab_armado sexo      raca  
##    <fct>        <fct>        <int>    <int>       <int> <fct>     <fct> 
##  1 No          11001           34        1           0 Masculino Pardo 
##  2 No          11001           49        1           0 Masculino Pardo 
##  3 No          11001           20        1           0 Masculino Pardo 
##  4 No          11001           42        1           0 Masculino Branco
##  5 No          11001           45        1           0 Masculino Pardo 
##  6 No          11001           26        1           0 Masculino Pardo 
##  7 No          11001           25        1           1 Masculino Pardo 
##  8 No          11001           30        1           0 Masculino Pardo 
##  9 No          11001           32        1           0 Masculino Pardo 
## 10 No          11001           28        1           0 Masculino Pardo 
## # ... with 65,304 more rows, and 3 more variables: estado_civil <fct>,
## #   escolaridade <ord>, escolaridade_pai <ord>

Atividade:

Selecionem somente indivduos com idade superior ou igual a 30 anos solteiros e com idade legal para porte de armas!

3.6 - Ordene seus data frames: funo arrange()

# Ordenando os dados pela varivel idade de forma crescente
base13 = arrange(base, idade )
base13

## # A tibble: 167,789 x 10
##    suicidio_paf Microrregiao idade id_legal trab_armado sexo     raca     
##    <fct>        <fct>        <int>    <int>       <int> <fct>    <fct>    
##  1 No          11001           20        1           0 Masculi Pardo    
##  2 No          11001           20        0           0 Feminino Pardo    
##  3 No          11001           20        0           0 Masculi Pardo    
##  4 No          11001           20        1           0 Masculi Negro    
##  5 Sim          11001           20        1           0 Masculi Desconhe
##  6 No          11001           20        0           0 Masculi Pardo    
##  7 No          11001           20        1           1 Masculi Pardo    
##  8 No          11001           20        0           0 Feminino Pardo    
##  9 No          11001           20        0           0 Masculi Pardo    
## 10 No          11002           20        1           0 Masculi Branco   
## # ... with 167,779 more rows, and 3 more variables: estado_civil <fct>,
## #   escolaridade <ord>, escolaridade_pai <ord>

# Ordenando os dados pela varivel idade e escolaridade
base14 = arrange(base, idade ,escolaridade)
base14

## # A tibble: 167,789 x 10
##    suicidio_paf Microrregiao idade id_legal trab_armado sexo     raca     
##    <fct>        <fct>        <int>    <int>       <int> <fct>    <fct>    
##  1 No          12004           20        1           0 Masculi Desconhe
##  2 No          12005           20        1           0 Masculi Branco   
##  3 No          13001           20        0           0 Masculi Indigena 
##  4 No          14001           20        0           0 Feminino Indigena 
##  5 No          14001           20        1           0 Masculi Pardo    
##  6 No          15007           20        1           0 Masculi Pardo    
##  7 No          15010           20        0           0 Masculi Pardo    
##  8 No          15016           20        1           0 Masculi Pardo    
##  9 No          15017           20        0           0 Masculi Branco   
## 10 No          16003           20        1           0 Masculi Pardo    
## # ... with 167,779 more rows, and 3 more variables: estado_civil <fct>,
## #   escolaridade <ord>, escolaridade_pai <ord>

# Ordenando os dados pela varivel idade de forma decrescente
base15 = arrange(base, desc(idade) )
base15

## # A tibble: 167,789 x 10
##    suicidio_paf Microrregiao idade id_legal trab_armado sexo      raca  
##    <fct>        <fct>        <int>    <int>       <int> <fct>     <fct> 
##  1 No          52007          103        1           0 Masculino Branco
##  2 No          52007          103        1           0 Masculino Branco
##  3 No          22014          100        1           0 Masculino Branco
##  4 No          33018          100        1           0 Feminino  Branco
##  5 No          41011          100        1           0 Masculino Branco
##  6 No          22014          100        1           0 Masculino Branco
##  7 No          33018          100        1           0 Feminino  Branco
##  8 No          41011          100        1           0 Masculino Branco
##  9 No          15017           99        1           0 Masculino Pardo 
## 10 No          25022           99        1           0 Masculino Pardo 
## # ... with 167,779 more rows, and 3 more variables: estado_civil <fct>,
## #   escolaridade <ord>, escolaridade_pai <ord>

3.7 - Crie uma nova varivel: funo mutate() e transmute()

# Criando a varivel Idade ao quadrado
base16 = mutate(base, idade2 = idade**2 )
base16

## # A tibble: 167,789 x 11
##    suicidio_paf Microrregiao idade id_legal trab_armado sexo     raca     
##    <fct>        <fct>        <int>    <int>       <int> <fct>    <fct>    
##  1 No          11001           26        1           0 Feminino Branco   
##  2 No          11001           34        1           0 Masculi Pardo    
##  3 No          11001           49        1           0 Masculi Pardo    
##  4 Sim          11001           34        1           0 Masculi Branco   
##  5 No          11001           20        1           0 Masculi Pardo    
##  6 No          11001           30        1           0 Masculi Branco   
##  7 No          11001           42        1           0 Masculi Branco   
##  8 No          11001           33        1           0 Masculi Desconhe
##  9 Sim          11001           38        1           0 Masculi Pardo    
## 10 No          11001           25        1           0 Masculi Pardo    
## # ... with 167,779 more rows, and 4 more variables: estado_civil <fct>,
## #   escolaridade <ord>, escolaridade_pai <ord>, idade2 <dbl>

# Criando a varivel UF e a varivel Grandes regies
base17 = mutate(base, UF = substring(Microrregiao,1,2), Grandes.regioes = substring(UF,1,1) )
base17

## # A tibble: 167,789 x 12
##    suicidio_paf Microrregiao idade id_legal trab_armado sexo     raca     
##    <fct>        <fct>        <int>    <int>       <int> <fct>    <fct>    
##  1 No          11001           26        1           0 Feminino Branco   
##  2 No          11001           34        1           0 Masculi Pardo    
##  3 No          11001           49        1           0 Masculi Pardo    
##  4 Sim          11001           34        1           0 Masculi Branco   
##  5 No          11001           20        1           0 Masculi Pardo    
##  6 No          11001           30        1           0 Masculi Branco   
##  7 No          11001           42        1           0 Masculi Branco   
##  8 No          11001           33        1           0 Masculi Desconhe
##  9 Sim          11001           38        1           0 Masculi Pardo    
## 10 No          11001           25        1           0 Masculi Pardo    
## # ... with 167,779 more rows, and 5 more variables: estado_civil <fct>,
## #   escolaridade <ord>, escolaridade_pai <ord>, UF <chr>,
## #   Grandes.regioes <chr>

# Se voc quiser somente manter as variveis criadas
base18 = transmute(base,UF = substring(Microrregiao,1,2), Grandes.regioes = substring(UF,1,1) )
base18

## # A tibble: 167,789 x 2
##    UF    Grandes.regioes
##    <chr> <chr>          
##  1 11    1              
##  2 11    1              
##  3 11    1              
##  4 11    1              
##  5 11    1              
##  6 11    1              
##  7 11    1              
##  8 11    1              
##  9 11    1              
## 10 11    1              
## # ... with 167,779 more rows
…
