…
Um mdico est verificando a eficcia de uma medicao para diabetis. Ele mediu a glicemia de pacientes com diabetis antes do incio do tratamento e aps o tratamento com a medicao. Para que o medicamento seja eficientes, o mdico espera que a glicemia dos pacientes tenha diminudo. Voc diria que o medicamento  eficiente?

Hiptese: \[H_0: \mu_1 = \mu_2  \qquad \times  \qquad H_1: \mu_1 > \mu_2,\] ou equivalentemente, \[H_0: \mu_1 - \mu_2 = 0  \qquad \times  \qquad H_1: \mu_1 - \mu_2 > 0.\]

Dados:

## Using ',' as decimal and '.' as grouping mark. Use read_delim() for more control.

## Parsed with column specification:
## cols(
##   Glicemia1 = col_double(),
##   Glicemia2 = col_double()
## )

## # A tibble: 30 x 2
##    Glicemia1 Glicemia2
##        <dbl>     <dbl>
##  1      384.      328.
##  2      393.      334.
##  3      402       324 
##  4      388.      349.
##  5      404.      322.
##  6      398.      323.
##  7      387.      312.
##  8      397.      298.
##  9      389.      306.
## 10      410.      307.
## # ... with 20 more rows
…
